[
  {
    "cedula": "1315178051",
    "nombres": "Alexander Guerrero",
    "direccion": "Costa Azul",
    "telefono": "0989194770",
    "correo": "aguerrero@gmail.com"
  },

  {
    "cedula": "1321545845",
    "nombres": "Eber Alarcon",
    "direccion": "La Pradera",
    "telefono": "0997545121",
    "correo": "ealarcon@gmail.com"
  },

  {
    "cedula": "1354545144",
    "nombres": "Jose Artega",
    "direccion": "El centro",
    "telefono": "0986537212",
    "correo": "jartega@gmail.com"
  },

  {
    "cedula": "1351545411",
    "nombres": "Juan Cedeño",
    "direccion": "Divino Niño",
    "telefono": "0988745112",
    "correo": "jcedeño@gmail.com"
  },

  {
    "cedula": "1351545411",
    "nombres": "Anthony Holguin",
    "direccion": "El Palmar",
    "telefono": "0947878511",
    "correo": "aholguin@gmail.com"
  },

  {
    "cedula": "1315178051",
    "nombres": "Helen Lucas",
    "direccion": "Costa Azul",
    "telefono": "0984513265",
    "correo": "aguerrero@gmail.com"
  },

  {
    "cedula": "1321545845",
    "nombres": "Nahomi Machuca",
    "direccion": "La Pradera",
    "telefono": "0988751451",
    "correo": "nmachuca@gmail.com"
  },

  {
    "cedula": "1354545144",
    "nombres": "Kelvin Muñoz",
    "direccion": "El centro",
    "telefono": "0988451326",
    "correo": "kmuñoz@gmail.com"
  },

  {
    "cedula": "1351545411",
    "nombres": "Luis Navarrete",
    "direccion": "Divino Niño",
    "telefono": "0947845123",
    "correo": "lnavarrete@gmail.com"
  },

  {
    "cedula": "1351545411",
    "nombres": "Kevin Holguin",
    "direccion": "El Palmar",
    "telefono": "0947878511",
    "correo": "kholguin@gmail.com"
  }

]
